module deadlocks_train

go 1.21.5

replace deadlocks_train/common => ../common

require (
	github.com/ebitengine/purego v0.5.0 // indirect
	github.com/jezek/xgb v1.1.0 // indirect
	golang.org/x/sync v0.3.0 // indirect
)

require (
	github.com/hajimehoshi/ebiten/v2 v2.6.3
	golang.org/x/exp v0.0.0-20190731235908-ec7cb31e5a56 // indirect
	golang.org/x/image v0.12.0 // indirect
	golang.org/x/mobile v0.0.0-20230922142353-e2f452493d57 // indirect
	golang.org/x/sys v0.12.0 // indirect
)
